{"frames": [

{
	"filename": "s6-backdrop.png",
	"frame": {"x":2,"y":2,"w":160,"h":90},
	"rotated": false,
	"trimmed": false,
	"spriteSourceSize": {"x":0,"y":0,"w":160,"h":90},
	"sourceSize": {"w":160,"h":90}
},
{
	"filename": "s6-clock-0.png",
	"frame": {"x":193,"y":96,"w":16,"h":16},
	"rotated": false,
	"trimmed": false,
	"spriteSourceSize": {"x":0,"y":0,"w":16,"h":16},
	"sourceSize": {"w":16,"h":16}
},
{
	"filename": "s6-clock-1.png",
	"frame": {"x":175,"y":96,"w":16,"h":16},
	"rotated": false,
	"trimmed": false,
	"spriteSourceSize": {"x":0,"y":0,"w":16,"h":16},
	"sourceSize": {"w":16,"h":16}
},
{
	"filename": "s6-clock-2.png",
	"frame": {"x":157,"y":96,"w":16,"h":16},
	"rotated": false,
	"trimmed": false,
	"spriteSourceSize": {"x":0,"y":0,"w":16,"h":16},
	"sourceSize": {"w":16,"h":16}
},
{
	"filename": "s6-clock-3.png",
	"frame": {"x":139,"y":94,"w":16,"h":16},
	"rotated": false,
	"trimmed": false,
	"spriteSourceSize": {"x":0,"y":0,"w":16,"h":16},
	"sourceSize": {"w":16,"h":16}
},
{
	"filename": "s6-clock-4.png",
	"frame": {"x":121,"y":94,"w":16,"h":16},
	"rotated": false,
	"trimmed": false,
	"spriteSourceSize": {"x":0,"y":0,"w":16,"h":16},
	"sourceSize": {"w":16,"h":16}
},
{
	"filename": "s6-clock-5.png",
	"frame": {"x":103,"y":94,"w":16,"h":16},
	"rotated": false,
	"trimmed": false,
	"spriteSourceSize": {"x":0,"y":0,"w":16,"h":16},
	"sourceSize": {"w":16,"h":16}
},
{
	"filename": "s6-dead.png",
	"frame": {"x":2,"y":94,"w":81,"h":32},
	"rotated": false,
	"trimmed": false,
	"spriteSourceSize": {"x":0,"y":0,"w":81,"h":32},
	"sourceSize": {"w":81,"h":32}
},
{
	"filename": "s6-fast-0.png",
	"frame": {"x":189,"y":49,"w":23,"h":45},
	"rotated": false,
	"trimmed": false,
	"spriteSourceSize": {"x":0,"y":0,"w":23,"h":45},
	"sourceSize": {"w":23,"h":45}
},
{
	"filename": "s6-fast-1.png",
	"frame": {"x":164,"y":49,"w":23,"h":45},
	"rotated": false,
	"trimmed": false,
	"spriteSourceSize": {"x":0,"y":0,"w":23,"h":45},
	"sourceSize": {"w":23,"h":45}
},
{
	"filename": "s6-paper.png",
	"frame": {"x":85,"y":117,"w":13,"h":1},
	"rotated": false,
	"trimmed": false,
	"spriteSourceSize": {"x":0,"y":0,"w":13,"h":1},
	"sourceSize": {"w":13,"h":1}
},
{
	"filename": "s6-plant.png",
	"frame": {"x":85,"y":94,"w":16,"h":21},
	"rotated": false,
	"trimmed": false,
	"spriteSourceSize": {"x":0,"y":0,"w":16,"h":21},
	"sourceSize": {"w":16,"h":21}
},
{
	"filename": "s6-screen-0.png",
	"frame": {"x":214,"y":92,"w":22,"h":16},
	"rotated": false,
	"trimmed": false,
	"spriteSourceSize": {"x":0,"y":0,"w":22,"h":16},
	"sourceSize": {"w":22,"h":16}
},
{
	"filename": "s6-screen-1.png",
	"frame": {"x":214,"y":74,"w":22,"h":16},
	"rotated": false,
	"trimmed": false,
	"spriteSourceSize": {"x":0,"y":0,"w":22,"h":16},
	"sourceSize": {"w":22,"h":16}
},
{
	"filename": "s6-screen-2.png",
	"frame": {"x":214,"y":56,"w":22,"h":16},
	"rotated": false,
	"trimmed": false,
	"spriteSourceSize": {"x":0,"y":0,"w":22,"h":16},
	"sourceSize": {"w":22,"h":16}
},
{
	"filename": "s6-screen-3.png",
	"frame": {"x":214,"y":38,"w":22,"h":16},
	"rotated": false,
	"trimmed": false,
	"spriteSourceSize": {"x":0,"y":0,"w":22,"h":16},
	"sourceSize": {"w":22,"h":16}
},
{
	"filename": "s6-screen-4.png",
	"frame": {"x":214,"y":20,"w":22,"h":16},
	"rotated": false,
	"trimmed": false,
	"spriteSourceSize": {"x":0,"y":0,"w":22,"h":16},
	"sourceSize": {"w":22,"h":16}
},
{
	"filename": "s6-screen-5.png",
	"frame": {"x":214,"y":2,"w":22,"h":16},
	"rotated": false,
	"trimmed": false,
	"spriteSourceSize": {"x":0,"y":0,"w":22,"h":16},
	"sourceSize": {"w":22,"h":16}
},
{
	"filename": "s6-work-0.png",
	"frame": {"x":189,"y":2,"w":23,"h":45},
	"rotated": false,
	"trimmed": false,
	"spriteSourceSize": {"x":0,"y":0,"w":23,"h":45},
	"sourceSize": {"w":23,"h":45}
},
{
	"filename": "s6-work-1.png",
	"frame": {"x":164,"y":2,"w":23,"h":45},
	"rotated": false,
	"trimmed": false,
	"spriteSourceSize": {"x":0,"y":0,"w":23,"h":45},
	"sourceSize": {"w":23,"h":45}
}],
"meta": {
	"app": "http://www.texturepacker.com",
	"version": "1.0",
	"image": "AtlasScene6.png",
	"format": "RGBA8888",
	"size": {"w":238,"h":128},
	"scale": "1",
	"smartupdate": "$TexturePacker:SmartUpdate:854d463e5c96930e1042ab741c3ef455$"
}
}
