{"frames": [

{
	"filename": "s8-bg.png",
	"frame": {"x":2,"y":2,"w":160,"h":90},
	"rotated": false,
	"trimmed": false,
	"spriteSourceSize": {"x":0,"y":0,"w":160,"h":90},
	"sourceSize": {"w":160,"h":90}
},
{
	"filename": "s8-clouds-0.png",
	"frame": {"x":164,"y":34,"w":160,"h":30},
	"rotated": false,
	"trimmed": false,
	"spriteSourceSize": {"x":0,"y":0,"w":160,"h":30},
	"sourceSize": {"w":160,"h":30}
},
{
	"filename": "s8-clouds-1.png",
	"frame": {"x":164,"y":2,"w":160,"h":30},
	"rotated": false,
	"trimmed": false,
	"spriteSourceSize": {"x":0,"y":0,"w":160,"h":30},
	"sourceSize": {"w":160,"h":30}
}],
"meta": {
	"app": "http://www.texturepacker.com",
	"version": "1.0",
	"image": "AtlasGameOver.png",
	"format": "RGBA8888",
	"size": {"w":326,"h":94},
	"scale": "1",
	"smartupdate": "$TexturePacker:SmartUpdate:d4b1ea235452651848216f43cc6f7aab$"
}
}
